MS360 and Voluntary Ethanol Consumption
…
Gustafsson & Nylander, 2006

Summary statistics given: individual points from plots

AFR = 13, MS15 = 15, MS360 = 25

GN2006 <- read_excel("G&N2006.xlsx")
GN2006 |> mutate()

# A tibble: 477 × 4
   Group Phase       Ethanol_Percentage Ethanol_Intake
   <chr> <chr>                    <dbl>          <dbl>
 1 MS15  Acquisition                  5         0.0797
 2 MS15  Acquisition                  5         0.0679
 3 MS15  Acquisition                  5         0.0590
 4 MS15  Acquisition                  5         0.0767
 5 MS15  Acquisition                  5         0.139 
 6 MS15  Acquisition                  5         0.159 
 7 MS15  Acquisition                  5         0.168 
 8 MS15  Acquisition                  5         0.198 
 9 MS15  Acquisition                  5         0.198 
10 MS15  Acquisition                  5         0.269 
# ℹ 467 more rows
…
